<?xml version="1.0" encoding="UTF-8" standalone="no"?>
<svg width="78px" height="78px" viewBox="0 0 78 78" version="1.1" xmlns="http://www.w3.org/2000/svg" xmlns:xlink="http://www.w3.org/1999/xlink" xmlns:sketch="http://www.bohemiancoding.com/sketch/ns">
    <!-- Generator: Sketch 3.3 (11970) - http://www.bohemiancoding.com/sketch -->
    <title>Artboard 1 Copy 4</title>
    <desc>Created with Sketch.</desc>
    <defs></defs>
    <g id="Page-1" stroke="none" stroke-width="1" fill="none" fill-rule="evenodd" sketch:type="MSPage">
        <g id="Artboard-1-Copy-4" sketch:type="MSArtboardGroup" stroke="#000000" stroke-width="3">
            <path d="M37.7580594,37.9341238 C36.5348939,41.3833992 33.3184217,43.4888011 33.3184217,43.4888011 C33.3184217,43.4888011 33.0466071,46.0869565 33.0013047,46.7140975 C33.0466071,46.9828722 33.137212,51.0144928 41.1104389,52.1791831 C45.8218912,53.030303 49.1742707,54.4637681 49.9897143,57.2859025 C51.4846944,58.7193676 50.9410653,63.198946 50.9410653,63.198946 L6.00105893,63.198946 C6.00105893,63.198946 5.91045408,58.7193676 7.40543413,57.2859025 C8.90041418,55.8972332 9.08162388,53.3438735 17.0548508,52.1791831 C25.0280778,51.0144928 24.0767268,46.8484848 24.3485414,46.9828722 C24.3032389,45.4150198 24.1220292,43.2200264 24.1220292,43.2200264 C24.1220292,43.2200264 20.3619279,41.4729908 19.1387624,38.0237154 C16.6018266,36.9934124 16.9189435,36.3662714 16.6924314,35.0223979 C16.6924314,35.0223979 15.9222902,29.6916996 17.6437824,29.7812912 C17.6437824,29.7812912 19.7276939,29.7812912 19.4558794,28.571805 C19.3652745,26.5111989 19.5464842,26.5111989 19.6823915,25.1225296 C19.8182988,23.7786561 20.8149522,20.2397892 23.7143074,19.7022398 C26.6136627,19.1198946 24.3032389,19.4334651 25.2998923,19.2990777 C26.2512432,19.1198946 25.9794287,18.5823452 27.7462233,18.5823452 L28.9240864,18 C30.7361834,18 31.4610222,22.0316206 32.4123732,22.1660079 C33.3637241,22.3003953 33.5902362,21.7180501 35.583543,22.1212121 C38.4828982,22.6587615 37.4862448,22.7483531 37.6221521,24.1370224 C37.8033618,25.4808959 38.0298739,26.3768116 37.7580594,27.5862978 C37.4409424,28.7957839 40.0231807,28.6613966 40.0231807,28.6613966 C42.1070923,28.6613966 41.4275559,35.1567852 41.4275559,35.1567852 C41.1104389,36.5454545 39.6607613,36.7246377 37.7580594,37.9341238 L37.7580594,37.9341238 Z M58.3706631,63.1541502 C58.3706631,63.1541502 58.4159655,61.0935441 56.7397758,56.5243742 C55.5619127,54.7773386 53.885723,53.1646904 51.4846944,51.7760211 C51.439392,50.5665349 51.3487871,48.7747036 51.3487871,48.7747036 C51.3487871,48.7747036 48.4494319,47.43083 47.4980809,44.7878788 C45.5500766,44.0263505 45.8218912,43.4888011 45.6406815,42.5032938 C45.6406815,42.5032938 45.0064475,38.3820817 46.3655203,38.4716733 C46.3655203,38.4716733 47.4980809,38.4716733 47.2715688,37.5309618 C47.1809639,35.9631094 47.0450567,32.9617918 47.1356615,31.886693 C47.2715688,30.85639 47.6339882,28.0342556 49.8538071,27.6310935 C52.0736259,27.2279315 51.4846944,27.4071146 52.2095332,27.3175231 C52.934372,27.2279315 52.7531623,26.7799736 54.1122351,26.7799736 L56.9662879,26.3320158 C58.3253607,26.3320158 59.2314092,28.2134387 59.956248,28.3478261 C60.6810868,28.4374177 60.4998771,28.0342556 61.9948572,28.3030303 C64.214676,28.7061924 63.8975591,31.7075099 63.9881639,32.7378129 C64.1240712,33.7681159 64.1693736,36.8142292 63.9881639,37.7549407 C63.7616518,38.6956522 64.4411882,38.6060606 64.4411882,38.6060606 C65.9814706,38.6060606 65.8908658,42.5928854 65.8908658,42.5928854 C65.6643537,43.6679842 65.0754221,43.8023715 63.6257445,44.6982872 C62.6743936,47.3412385 60.1827601,48.9538867 60.1827601,48.9538867 C60.1827601,48.9538867 59.956248,50.969697 59.956248,51.4624506 C60.0015504,51.6416337 58.7783849,54.7325428 64.8942124,55.6284585 C71.0100399,56.5243742 71.8254836,58.0922266 72.7768345,59.3465086 C73.4563709,60.1528327 74,63.3333333 74,63.3333333 C74,63.3333333 66.34389,63.1541502 58.3706631,63.1541502 L58.3706631,63.1541502 Z" id="Customers-Icon" sketch:type="MSShapeGroup"></path>
        </g>
    </g>
</svg>